…
``` r
super_movies_adj %>% 
  arrange(release_year)
```

    ## # A tibble: 197 x 17
    ##    budget imdb_id original_title title release_date revenue runtime status
    ##     <int> <chr>   <chr>          <chr> <chr>          <dbl>   <int> <chr> 
    ##  1 5.50e7 tt0078… Superman       Supe… 1978-12-13    3.00e8     143 Relea…
    ##  2 0.     tt3516… Safety Woman:… Safe… 1978-01-01    0.          15 Relea…
    ##  3 5.40e7 tt0081… Superman II    Supe… 1980-12-04    1.90e8     127 Relea…
    ##  4 0.     tt0080… Hero at Large  Hero… 1980-02-08    1.59e7      98 Relea…
    ##  5 0.     tt0461… Super Christi… Supe… 1980-01-01    0.          27 Relea…
    ##  6 0.     tt0082… Condorman      Cond… 1981-07-02    0.          90 Relea…
    ##  7 0.     tt0842… Superbman: Th… Supe… 1981-01-01    0.          30 Relea…
    ##  8 0.     tt0203… Gekko Kamen    The … 1982-11-01    0.          94 Relea…
    ##  9 3.90e7 tt0086… Superman III   Supe… 1983-06-17    7.59e7     125 Relea…
    ## 10 5.00e0 tt0086… The Return of… The … 1983-01-01    0.          96 Relea…
    ## # … with 187 more rows, and 9 more variables: vote_average <dbl>,
    ## #   vote_count <int>, movie_id <int>, release_year <dbl>, inf_rate <dbl>,
    ## #   budget_inf_adj <dbl>, revenue_inf_adj <dbl>, profit <dbl>, roi <dbl>
…
``` r
super_movies_adj %>% 
  filter(budget > 100000) %>% 
  group_by(release_year) %>% 
  slice_max(order_by = roi,
            n = 1) %>% 
  select(title, budget_inf_adj, profit, roi, release_year)
```

    ## # A tibble: 37 x 5
    ## # Groups:   release_year [37]
    ##    title                            budget_inf_adj    profit    roi release_year
    ##    <chr>                                     <dbl>     <dbl>  <dbl>        <dbl>
    ##  1 Superman                             217339532.    9.69e8  4.46          1978
    ##  2 Superman II                          168915008.    4.27e8  2.53          1980
    ##  3 Superman III                         100937113.    9.54e7  0.945         1983
    ##  4 Supergirl                             86849591.   -5.14e7 -0.592         1984
    ##  5 Superman IV: The Quest for Peace      38567424.    5.22e6  0.135         1987
    ##  6 How to Draw Comics the Marvel W…        762925.   -7.63e5 -1             1988
    ##  7 Batman                                72779443.    7.83e8 10.8           1989
    ##  8 Captain America                       19729155.   -1.97e7 -1             1990
    ##  9 The Rocketeer                         79495833.    3.79e7  0.476         1991
    ## 10 Batman Returns                       146969202.    3.67e8  2.5           1992
    ## # … with 27 more rows
